Final Project EDA Report
…
table(aqi$month, aqi$date)            # ALL March 18

##    
##       18
##   3 1590

#So they do NOT add meaningful information to the data except that these data were collected on March 18, 2015
aqi <- aqi %>% 
  select(-c(date, month, year))  # DE-selected year, month, date columns that do NOT add any useful information

aqi <- aqi %>% clean_names()  #no names changed <- nothing changed but it is a useful function
aqi

## # A tibble: 1,590 x 16
##    locationid stationname latitude longitude  pm25  pm10    o3   no2   so2
##         <int> <chr>          <dbl>     <dbl> <dbl> <dbl> <dbl> <dbl> <dbl>
##  1          1 Dongcheng      39.9      116.   80.   30.   37.   12.    6.
##  2          2 Temple of      39.9      116.  113.   40.   61.   17.    5.
##  3          3 West Park      39.9      116.   72.   44.   42.   11.    4.
##  4          4 West Wansh     39.9      116.   80.   32.   47.   30.    7.
##  5          5 Chaoyang O     40.0      116.   87.   48.   45.   15.    6.
##  6          6 Chaoyang A     39.9      116.   87.   37.   47.   18.    7.
##  7          7 Haidian Wa     40.0      116.   79.   53.   29.   23.    8.
##  8          8 The Haidia     40.1      116.  180.   90.   18.   18.   11.
##  9          9 Haidian Be     40.0      116.   76.   33.   25.   11.    4.
## 10         10 Fengtai ga     39.9      116.   98.   40.   20.   22.    6.
## # ... with 1,580 more rows, and 7 more variables: co <dbl>,
## #   pressure <int>, wind <dbl>, hour <dbl>, temp <dbl>, dew <dbl>,
## #   humid <dbl>
…
First, some unit conversions are conducted to use EPAs formula. Then several numerical vectors that contain appropriate breakpoints are created for each pollutants. Depending on the two breakpoints that each concentration falls in, each concentration is assigned fitting categories: very good, good, moderate, bad, very bad, dangerous, toxic. Of course, these categories indicate the quality of the air. Some lengthy functions are created to convert the concentrations to AQI scores.

## [1] 0.01 2.90

## [1]    0 1190

## [1]    0 1030

## [1]  0 67

## [1]   1 544

## [1]   0 999

## # A tibble: 1,590 x 4
##    pm25      pm25_cat pm10      pm10_cat 
##    <dbl+lbl> <fct>    <dbl+lbl> <fct>    
##  1  80       bad      30        very good
##  2 113       bad      40        very good
##  3  72       bad      44        very good
##  4  80       bad      32        very good
##  5  87       bad      48        very good
##  6  87       bad      37        very good
##  7  79       bad      53        very good
##  8 180       very bad 90        good     
##  9  76       bad      33        very good
## 10  98       bad      40        very good
## # ... with 1,580 more rows

## # A tibble: 1,590 x 28
##    locationid stationname latitude longitude pm25  pm25_cat aqi_pm25 pm10 
##         <int> <chr>          <dbl>     <dbl> <dbl> <fct>       <dbl> <dbl>
##  1          1 Dongcheng      39.9      116.  80   bad          164. 30   
##  2          2 Temple of      39.9      116. 113   bad          181. 40   
##  3          3 West Park      39.9      116.  72   bad          160. 44   
##  4          4 West Wansh     39.9      116.  80   bad          164. 32   
##  5          5 Chaoyang O     40.0      116.  87   bad          167. 48   
##  6          6 Chaoyang A     39.9      116.  87   bad          167. 37   
##  7          7 Haidian Wa     40.0      116.  79   bad          163. 53   
##  8          8 The Haidia     40.1      116. 180   very bad     230. 90   
##  9          9 Haidian Be     40.0      116.  76   bad          162. 33   
## 10         10 Fengtai ga     39.9      116.  98   bad          173. 40   
## # ... with 1,580 more rows, and 20 more variables: pm10_cat <fct>,
## #   aqi_pm10 <dbl>, o3 <dbl+lbl>, o3_cat <fct>, aqi_o3 <dbl>,
## #   no2 <dbl+lbl>, no2_cat <fct>, aqi_no2 <dbl>, so2 <dbl+lbl>,
## #   so2_cat <fct>, aqi_so2 <dbl>, co <dbl+lbl>, co_cat <fct>,
## #   aqi_co <dbl>, pressure <int>, wind <dbl>, hour <dbl>, temp <dbl>,
## #   dew <dbl>, humid <dbl>
…
colnames(aqi_score)  #giving us all the column names <- just to see what this does

## [1] "aqi_pm25" "aqi_pm10" "aqi_o3"   "aqi_so2"  "aqi_no2"  "aqi_co"

#Now I need to pick the MAXIMUM AQI score on each ROW
#The MAXimum score on each row is "the" AQI score for that location and time
aqi_score <- aqi_score %>% 
  mutate(max_aqi = apply(aqi_score, 1, max)) %>%   # showing the maximum AQI for each ROW
  mutate(
    max_pollut = colnames(aqi_score)[max.col(aqi_score)] ) # showing which pollutant that maximum AQI is coming from
aqi_score   #notice the two NEW columns that have been added on the right

## # A tibble: 1,590 x 8
##    aqi_pm25 aqi_pm10 aqi_o3 aqi_so2 aqi_no2 aqi_co max_aqi max_pollut
##       <dbl>    <dbl>  <dbl>   <dbl>   <dbl>  <dbl>   <dbl> <chr>     
##  1     164.     27.4   283.    81.2    105.  126.     283. aqi_o3    
##  2     181.     36.8     0.    68.6    114.   56.0    181. aqi_pm25  
##  3     160.     40.6   316.    56.0    103.   76.0    316. aqi_o3    
##  4     164.     29.2   366.    93.7    139.   66.0    366. aqi_o3    
##  5     167.     44.3   346.    81.2    110.  126.     346. aqi_o3    
##  6     167.     34.0   366.    93.7    116.   66.0    366. aqi_o3    
##  7     163.     49.1   243.   103.     125.  126.     243. aqi_o3    
##  8     230.     68.3   170.   116.     116.  218.     230. aqi_pm25  
##  9     162.     30.2   223.    56.0    103.   56.0    223. aqi_o3    
## 10     173.     36.8   195.    81.2    124.   56.0    195. aqi_o3    
## # ... with 1,580 more rows

max_aqi_score <- aqi_score[, (dim(aqi_score)[2]-1):dim(aqi_score)[2] ]
max_aqi_score  # just extracted the two right columns from aqi_score

## # A tibble: 1,590 x 2
##    max_aqi max_pollut
##      <dbl> <chr>     
##  1    283. aqi_o3    
##  2    181. aqi_pm25  
##  3    316. aqi_o3    
##  4    366. aqi_o3    
##  5    346. aqi_o3    
##  6    366. aqi_o3    
##  7    243. aqi_o3    
##  8    230. aqi_pm25  
##  9    223. aqi_o3    
## 10    195. aqi_o3    
## # ... with 1,580 more rows
…
